Final Project
…
-arrange (https://www.rdocumentation.org/packages/dplyr/versions/0.7.8/topics/arrange): orders data based off of whichever attribute is fed into this function.

The main data frame is being split into other frames based off of the positions of the players. Each of these new data frames are having two columns initially added: an adjusted age column (this data set is 3 years old), and a player score based off of an aggregate of attribute values. These values will vary for each position, and certain positions have more attributes than others (due to what is important for that position). As a result, there will be no cross-position comparison of values. This data will be used in further parts of our project. This is a great example of data collection and manipulation.

strikers <- football_tab%>%
  filter(Finishing >= 14, FirstTouch >= 14, Striker >= 16)%>%
  mutate(Score = Finishing + FirstTouch + Passing + Technique + Composure +
         Decisions + OffTheBall + Teamwork + Vision + Balance + Strength)%>%
  mutate(Adj_Age = Age + 3)%>%
  select(Name, Age, Score, Workrate, Adj_Age)%>%
  arrange(desc(Score))
strikers

## # A tibble: 1,113 x 5
##    Name                 Age Score Workrate Adj_Age
##    <chr>              <dbl> <dbl>    <dbl>   <dbl>
##  1 Lionel Messi          29   196        7      32
##  2 Karim Benzema         28   183       11      31
##  3 Francesco Totti       39   179       12      42
##  4 Robert Lewandowski    27   177       18      30
##  5 Gonzalo Higuan       28   177       14      31
##  6 Zlatan Ibrahimovic    34   176        8      37
##  7 Antonio Cassano       33   175       10      36
##  8 Luis Surez           29   175       16      32
##  9 Paulo Dybala          22   174       15      25
## 10 Jonas                 32   174       14      35
## # ... with 1,103 more rows

cm <- football_tab%>%
  filter(MidfielderCentral >= 17, FirstTouch >= 14, Passing >= 14)%>%
  mutate(Score = FirstTouch + Passing + Technique + Anticipation + Composure + 
         Decisions + OffTheBall + Teamwork + Vision + Balance + Positioning + Concentration)%>%
  mutate(Adj_Age = Age + 3)%>%
  select(Name, Age, Score, Workrate, Adj_Age)%>%
  arrange(desc(Score))
cm

## # A tibble: 1,470 x 5
##    Name                Age Score Workrate Adj_Age
##    <chr>             <dbl> <dbl>    <dbl>   <dbl>
##  1 Xavi                 36   215        6      39
##  2 Andrs Iniesta       32   204       13      35
##  3 Andrea Pirlo         37   201        6      40
##  4 Michael Carrick      34   198       11      37
##  5 Xabi Alonso          34   197       10      37
##  6 Toni Kroos           26   196       13      29
##  7 Sergio Busquets      27   193       15      30
##  8 Luka Modric          30   193       17      33
##  9 Claudio Marchisio    30   191       18      33
## 10 Cesc Fbregas        29   188       14      32
## # ... with 1,460 more rows

lm <- football_tab%>%
  filter(MidfielderLeft >= 17, Crossing >= 13, FirstTouch >= 13)%>%
  mutate(Score = Crossing + Dribbling + FirstTouch + Passing + Technique +
           OffTheBall + Acceleration + Agility + Pace + Stamina)%>%
  mutate(Adj_Age = Age + 3)%>%
  select(Name, Age, Score, Workrate, Adj_Age)%>%
  arrange(desc(Score))
lm

## # A tibble: 648 x 5
##    Name               Age Score Workrate Adj_Age
##    <chr>            <dbl> <dbl>    <dbl>   <dbl>
##  1 Neymar              24   174       12      27
##  2 Arjen Robben        32   167       14      35
##  3 ngel Di Mara      28   160       13      31
##  4 Nicols Gaitn      28   158       14      31
##  5 Douglas Costa       25   158       14      28
##  6 Alex Sandro         25   157       16      28
##  7 James Rodrguez     24   157       14      27
##  8 Kevin De Bruyne     25   155       15      28
##  9 Riyad Mahrez        25   155       13      28
## 10 Marko Arnautovic    27   154        8      30
## # ... with 638 more rows

rm <- football_tab%>%
  filter(MidfielderRight >= 17, Crossing >= 13, FirstTouch >= 13)%>%
  mutate(Score = Crossing + Dribbling + FirstTouch + Passing + Technique + 
           OffTheBall + Acceleration + Agility + Pace + Stamina)%>%
  mutate(Adj_Age = Age + 3)%>%
  select(Name, Age, Score, Workrate, Adj_Age)%>%
  arrange(desc(Score))
rm

## # A tibble: 640 x 5
##    Name               Age Score Workrate Adj_Age
##    <chr>            <dbl> <dbl>    <dbl>   <dbl>
##  1 Arjen Robben        32   167       14      35
##  2 Juan Cuadrado       28   159       10      31
##  3 Douglas Costa       25   158       14      28
##  4 Kevin De Bruyne     25   155       15      28
##  5 Riyad Mahrez        25   155       13      28
##  6 Marko Arnautovic    27   154        8      30
##  7 Nani                29   153       13      32
##  8 Isco                24   152       10      27
##  9 Mehdi Carcela       27   152       11      30
## 10 Antonio Candreva    29   151       12      32
## # ... with 630 more rows

lb <- football_tab%>%
  filter(DefenderLeft >= 17, Crossing >= 10, Marking >= 10)%>%
  mutate(Score = Crossing + Dribbling + Marking + Passing + Tackling + Technique + 
         Anticipation + Composure + Concentration + Decisions + Positioning + Teamwork + Pace + Stamina)%>%
  mutate(Adj_Age = Age + 3)%>%
  select(Name, Age, Score, Workrate, Adj_Age)%>%
  arrange(desc(Score))
lb

## # A tibble: 2,871 x 5
##    Name                Age Score Workrate Adj_Age
##    <chr>             <dbl> <dbl>    <dbl>   <dbl>
##  1 Nacho Monreal        30   204       15      33
##  2 David Alaba          24   203       17      27
##  3 Alex Sandro          25   203       16      28
##  4 Patrice Evra         35   203       14      38
##  5 Marcelo              28   203       13      31
##  6 Aaron Cresswell      26   201       18      29
##  7 Maxwell              34   201       14      37
##  8 Ricardo Rodrguez    23   200       14      26
##  9 Daley Blind          26   199       16      29
## 10 Csar Azpilicueta    26   199       20      29
## # ... with 2,861 more rows

rb <- football_tab%>%
  filter(DefenderRight >= 17, Crossing >= 10, Marking >= 10)%>%
  mutate(Score = Crossing + Dribbling + Marking + Passing + Tackling + Technique + 
           Anticipation + Composure + Concentration + Decisions + Positioning + Teamwork + Pace + Stamina)%>%
  mutate(Adj_Age = Age + 3)%>%
  select(Name, Age, Score, Workrate, Adj_Age)%>%
  arrange(desc(Score))
rb

## # A tibble: 2,779 x 5
##    Name                   Age Score Workrate Adj_Age
##    <chr>                <dbl> <dbl>    <dbl>   <dbl>
##  1 Philipp Lahm            32   222       12      35
##  2 Stephan Lichtsteiner    32   201       19      35
##  3 Paul Verhaegh           32   201       12      35
##  4 Csar Azpilicueta       26   199       20      29
##  5 Sergi Roberto           24   199       18      27
##  6 Mrio Fernandes         25   198       13      28
##  7 Nathaniel Clyne         25   198       16      28
##  8 Dani Carvajal           24   198       19      27
##  9 Mario                   25   197       17      28
## 10 Juanfran                31   196       16      34
## # ... with 2,769 more rows

cb <- football_tab%>%
  filter(DefenderCentral >= 17, Marking >= 10, Tackling >= 14)%>%
  mutate(Score = FirstTouch + Heading + Marking + Passing + Tackling + Technique + 
         Aggression + Anticipation + Bravery + Composure + Concentration + 
         Decisions + Positioning + Vision + Jumping + Pace + Strength)%>%
  mutate(Adj_Age = Age + 3)%>%
  select(Name, Age, Score, Workrate, Adj_Age)%>%
  arrange(desc(Score))
cb

## # A tibble: 3,410 x 5
##    Name                Age Score Workrate Adj_Age
##    <chr>             <dbl> <dbl>    <dbl>   <dbl>
##  1 Gerard Piqu         29   266       15      32
##  2 Mats Hummels         27   262       12      30
##  3 Leonardo Bonucci     29   259       14      32
##  4 Sergio Ramos         30   259       16      33
##  5 Laurent Koscielny    30   255       16      33
##  6 Vincent Kompany      30   254       16      33
##  7 Thiago Silva         31   253       14      34
##  8 Javier Mascherano    32   253       19      35
##  9 Jrme Boateng       27   252        9      30
## 10 Giorgio Chiellini    31   251       19      34
## # ... with 3,400 more rows

gk <- football_tab%>%
  filter(Goalkeeper >= 17, Handling >= 10, Reflexes >= 10)%>%
  mutate(Score = AerialAbility + CommandOfArea + Communication + Handling + Kicking + 
         OneOnOnes + Reflexes + Throwing + Anticipation + Concentration + Decisions + Positioning + Agility)%>%
  mutate(Adj_Age = Age + 3)%>%
  select(Name, Age, Score, Workrate, Adj_Age)%>%
  arrange(desc(Score))
gk

## # A tibble: 10,660 x 5
##    Name               Age Score Workrate Adj_Age
##    <chr>            <dbl> <dbl>    <dbl>   <dbl>
##  1 Manuel Neuer        30   219       14      33
##  2 Gianluigi Buffon    38   213       10      41
##  3 Petr Cech           34   207       14      37
##  4 Jan Oblak           23   206       14      26
##  5 David De Gea        25   204        9      28
##  6 Fraser Forster      28   196       12      31
##  7 Samir Handanovic    31   196       12      34
##  8 Thibaut Courtois    24   195       10      27
##  9 Keylor Navas        29   195       15      32
## 10 Rui Patrcio        28   194       14      31
## # ... with 10,650 more rows
…
Adjusting Player Score

-ifelse (https://www.rdocumentation.org/packages/base/versions/3.6.0/topics/ifelse)

Now that we have the estimated change per year of age, we can alter our player score to fit our updated data. I used an ifelse() statement to positively alter the scores of players with ages below 35 (the perceived dropoff point for ability) and negatively alter the player scores of players over 35. The data frames were then rearranged based on this adjusted score.

str_final <- strikers%>%
  mutate(Adj_Score = ifelse(Adj_Age <= 35, Score + str_ch*3, Score - str_ch*(2 * Adj_Age-34)))%>%
  arrange(desc(Adj_Score))
str_final

## # A tibble: 1,113 x 6
##    Name                 Age Score Workrate Adj_Age Adj_Score
##    <chr>              <dbl> <dbl>    <dbl>   <dbl>     <dbl>
##  1 Lionel Messi          29   196        7      32      201.
##  2 Karim Benzema         28   183       11      31      188.
##  3 Robert Lewandowski    27   177       18      30      182.
##  4 Gonzalo Higuan       28   177       14      31      182.
##  5 Luis Surez           29   175       16      32      180.
##  6 Paulo Dybala          22   174       15      25      179.
##  7 Jonas                 32   174       14      35      179.
##  8 Sergio Agero         28   173       13      31      178.
##  9 Neymar                24   171       12      27      176.
## 10 Olivier Giroud        29   171       18      32      176.
## # ... with 1,103 more rows

cm_final <- cm%>%
  mutate(Adj_Score = ifelse(Adj_Age <= 35, Score + cm_ch*3, Score - str_ch*(2*Adj_Age-34)))%>%
  arrange(desc(Adj_Score))
cm_final

## # A tibble: 1,470 x 6
##    Name                     Age Score Workrate Adj_Age Adj_Score
##    <chr>                  <dbl> <dbl>    <dbl>   <dbl>     <dbl>
##  1 Andrs Iniesta            32   204       13      35      210.
##  2 Toni Kroos                26   196       13      29      202.
##  3 Sergio Busquets           27   193       15      30      199.
##  4 Luka Modric               30   193       17      33      199.
##  5 Claudio Marchisio         30   191       18      33      197.
##  6 Cesc Fbregas             29   188       14      32      194.
##  7 Sami Khedira              29   188       19      32      194.
##  8 Bastian Schweinsteiger    31   187       11      34      193.
##  9 Koke                      24   186       16      27      192.
## 10 Borja Valero              31   186       14      34      192.
## # ... with 1,460 more rows

lm_final <- lm%>%
  mutate(Adj_Score = ifelse(Adj_Age <= 35, Score + cm_ch*3, Score - str_ch*(2*Adj_Age-34)))%>%
  arrange(desc(Adj_Score))
lm_final

## # A tibble: 648 x 6
##    Name               Age Score Workrate Adj_Age Adj_Score
##    <chr>            <dbl> <dbl>    <dbl>   <dbl>     <dbl>
##  1 Neymar              24   174       12      27      180.
##  2 Arjen Robben        32   167       14      35      173.
##  3 ngel Di Mara      28   160       13      31      166.
##  4 Nicols Gaitn      28   158       14      31      164.
##  5 Douglas Costa       25   158       14      28      164.
##  6 Alex Sandro         25   157       16      28      163.
##  7 James Rodrguez     24   157       14      27      163.
##  8 Kevin De Bruyne     25   155       15      28      161.
##  9 Riyad Mahrez        25   155       13      28      161.
## 10 Marko Arnautovic    27   154        8      30      160.
## # ... with 638 more rows

rm_final <- rm%>%
  mutate(Adj_Score = ifelse(Adj_Age <= 35, Score + cm_ch*3, Score - str_ch*(2*Adj_Age-34)))%>%
  arrange(desc(Adj_Score))
rm_final

## # A tibble: 640 x 6
##    Name               Age Score Workrate Adj_Age Adj_Score
##    <chr>            <dbl> <dbl>    <dbl>   <dbl>     <dbl>
##  1 Arjen Robben        32   167       14      35      173.
##  2 Juan Cuadrado       28   159       10      31      165.
##  3 Douglas Costa       25   158       14      28      164.
##  4 Kevin De Bruyne     25   155       15      28      161.
##  5 Riyad Mahrez        25   155       13      28      161.
##  6 Marko Arnautovic    27   154        8      30      160.
##  7 Nani                29   153       13      32      159.
##  8 Isco                24   152       10      27      158.
##  9 Mehdi Carcela       27   152       11      30      158.
## 10 Antonio Candreva    29   151       12      32      157.
## # ... with 630 more rows

lb_final <- lb%>%
  mutate(Adj_Score = ifelse(Adj_Age <= 35, Score + cm_ch*3, Score - str_ch*(2*Adj_Age-34)))%>%
  arrange(desc(Adj_Score))
lb_final

## # A tibble: 2,871 x 6
##    Name                Age Score Workrate Adj_Age Adj_Score
##    <chr>             <dbl> <dbl>    <dbl>   <dbl>     <dbl>
##  1 Nacho Monreal        30   204       15      33      210.
##  2 David Alaba          24   203       17      27      209.
##  3 Alex Sandro          25   203       16      28      209.
##  4 Marcelo              28   203       13      31      209.
##  5 Aaron Cresswell      26   201       18      29      207.
##  6 Ricardo Rodrguez    23   200       14      26      206.
##  7 Daley Blind          26   199       16      29      205.
##  8 Csar Azpilicueta    26   199       20      29      205.
##  9 Marcel Schmelzer     28   198       14      31      204.
## 10 Leighton Baines      31   198       14      34      204.
## # ... with 2,861 more rows

rb_final <- rb%>%
  mutate(Adj_Score = ifelse(Adj_Age <= 35, Score + cm_ch*3, Score - str_ch*(2*Adj_Age-34)))%>%
  arrange(desc(Adj_Score))
rb_final

## # A tibble: 2,779 x 6
##    Name                   Age Score Workrate Adj_Age Adj_Score
##    <chr>                <dbl> <dbl>    <dbl>   <dbl>     <dbl>
##  1 Philipp Lahm            32   222       12      35      228.
##  2 Stephan Lichtsteiner    32   201       19      35      207.
##  3 Paul Verhaegh           32   201       12      35      207.
##  4 Csar Azpilicueta       26   199       20      29      205.
##  5 Sergi Roberto           24   199       18      27      205.
##  6 Mrio Fernandes         25   198       13      28      204.
##  7 Nathaniel Clyne         25   198       16      28      204.
##  8 Dani Carvajal           24   198       19      27      204.
##  9 Mario                   25   197       17      28      203.
## 10 Juanfran                31   196       16      34      202.
## # ... with 2,769 more rows

cb_final <- cb%>%
  mutate(Adj_Score = ifelse(Adj_Age <= 35, Score + cm_ch*3, Score - str_ch*(2*Adj_Age-34)))%>%
  arrange(desc(Adj_Score))
cb_final

## # A tibble: 3,410 x 6
##    Name                Age Score Workrate Adj_Age Adj_Score
##    <chr>             <dbl> <dbl>    <dbl>   <dbl>     <dbl>
##  1 Gerard Piqu         29   266       15      32      272.
##  2 Mats Hummels         27   262       12      30      268.
##  3 Leonardo Bonucci     29   259       14      32      265.
##  4 Sergio Ramos         30   259       16      33      265.
##  5 Laurent Koscielny    30   255       16      33      261.
##  6 Vincent Kompany      30   254       16      33      260.
##  7 Thiago Silva         31   253       14      34      259.
##  8 Javier Mascherano    32   253       19      35      259.
##  9 Jrme Boateng       27   252        9      30      258.
## 10 Giorgio Chiellini    31   251       19      34      257.
## # ... with 3,400 more rows

gk_final <- gk%>%
  mutate(Adj_Score = ifelse(Adj_Age <= 37, Score + cm_ch*3, Score - str_ch*(2*Adj_Age-37)))%>%
  arrange(desc(Adj_Score))
gk_final

## # A tibble: 10,660 x 6
##    Name               Age Score Workrate Adj_Age Adj_Score
##    <chr>            <dbl> <dbl>    <dbl>   <dbl>     <dbl>
##  1 Manuel Neuer        30   219       14      33      225.
##  2 Petr Cech           34   207       14      37      213.
##  3 Jan Oblak           23   206       14      26      212.
##  4 David De Gea        25   204        9      28      210.
##  5 Fraser Forster      28   196       12      31      202.
##  6 Samir Handanovic    31   196       12      34      202.
##  7 Thibaut Courtois    24   195       10      27      201.
##  8 Keylor Navas        29   195       15      32      201.
##  9 Rui Patrcio        28   194       14      31      200.
## 10 Sergio Rico         22   192       14      25      198.
## # ... with 10,650 more rows
…
